…
``` r
together$grade <- together$grade %>%
  str_replace("5 bach", "5") %>%
  str_replace("5 mag", "5")
together <- transform(together, all = as.numeric(all))
```

``` r
together %>%
  filter(!is.na(all)) %>%
  group_by(pre_or_post) %>%
  count(question)
```

    ## # A tibble: 52 x 3
    ## # Groups:   pre_or_post [2]
    ##    pre_or_post question                 n
    ##    <chr>       <chr>                <int>
    ##  1 Post        career_design          101
    ##  2 Post        curiosity_tech         101
    ##  3 Post        engineering_everyday   102
    ##  4 Post        enjoy_building         102
    ##  5 Post        future_innovation      100
    ##  6 Post        future_math            102
    ##  7 Post        good_at_math           102
    ##  8 Post        good_math_grades       101
    ##  9 Post        good_science           101
    ## 10 Post        higherlevel_math       101
    ## # … with 42 more rows

``` r
observations1 <- together %>%
  group_by(question, pre_or_post, grade) %>%
  filter(!is.na(all)) %>%
  count()
observations1
```

    ## # A tibble: 258 x 4
    ## # Groups:   question, pre_or_post, grade [258]
    ##    question      pre_or_post grade     n
    ##    <chr>         <chr>       <chr> <int>
    ##  1 career_design Post        <NA>      1
    ##  2 career_design Post        1        16
    ##  3 career_design Post        2        19
    ##  4 career_design Post        3        36
    ##  5 career_design Post        5        29
    ##  6 career_design Pre         <NA>      1
    ##  7 career_design Pre         1        21
    ##  8 career_design Pre         2        18
    ##  9 career_design Pre         3        39
    ## 10 career_design Pre         5        34
    ## # … with 248 more rows
…
``` r
observations2 <- others %>%
  group_by(question, pre_or_post, grade) %>%
  filter(!is.na(all)) %>%
  count()
observations2
```

    ## # A tibble: 88 x 4
    ## # Groups:   question, pre_or_post, grade [88]
    ##    question             pre_or_post grade     n
    ##    <chr>                <chr>       <chr> <int>
    ##  1 contribute_community Post        <NA>      1
    ##  2 contribute_community Post        1        15
    ##  3 contribute_community Post        2        20
    ##  4 contribute_community Post        3        36
    ##  5 contribute_community Post        5        29
    ##  6 contribute_community Pre         <NA>      1
    ##  7 contribute_community Pre         1        20
    ##  8 contribute_community Pre         2        21
    ##  9 contribute_community Pre         3        38
    ## 10 contribute_community Pre         5        35
    ## # … with 78 more rows

``` r
sum_of_scores <- together %>%
  filter(!is.na(all)) %>%
  filter(!is.na(grade)) %>%
  group_by(question, pre_or_post, grade) %>%
  summarize(Sum = sum(all))
sum_of_scores
```

    ## # A tibble: 208 x 4
    ## # Groups:   question, pre_or_post [52]
    ##    question       pre_or_post grade   Sum
    ##    <chr>          <chr>       <chr> <dbl>
    ##  1 career_design  Post        1        64
    ##  2 career_design  Post        2        69
    ##  3 career_design  Post        3       117
    ##  4 career_design  Post        5       105
    ##  5 career_design  Pre         1        81
    ##  6 career_design  Pre         2        61
    ##  7 career_design  Pre         3       134
    ##  8 career_design  Pre         5       126
    ##  9 curiosity_tech Post        1        68
    ## 10 curiosity_tech Post        2        89
    ## # … with 198 more rows
…
